[
	{
		"id": "joker",
		"name": "Joker",
		"xp": 3,
		"location": "Gotham",
		"picturePath": "/gallery/joker.jpg"
	},
	{
		"id": "spiderman",
		"name": "Spiderman",
		"xp": 3,
		"location": "Gotham",
		"picturePath": "/gallery/spider-man.jpg"
	},
	{
		"id": "wonderWoman",
		"name": "Wonder Woman",
		"xp": 3,
		"location": "Gotham",
		"picturePath": "/gallery/wonder-woman.jpg"
	},
	{
		"id": "batman",
		"name": "Batman",
		"xp": 3,
		"location": "Gotham",
		"picturePath": "/gallery/batman.jpg"
	},
	{
		"id": "hellboy",
		"name": "Hellboy",
		"xp": 3,
		"location": "Gotham",
		"picturePath": "/gallery/hell-boy.jpg"
	},
	{
		"id": "harleyQueen",
		"name": "Harley Queen",
		"xp": 3,
		"location": "Gotham",
		"picturePath": "/gallery/harley-queen.jpg"
	},
	{
		"id": "captainMarvel",
		"name": "Captain Marvel",
		"xp": 3,
		"location": "Gotham",
		"picturePath": "/gallery/captain-marvel.jpg"
	},
	{
		"id": "wolverine",
		"name": "Wolverine",
		"xp": 3,
		"location": "Gotham",
		"picturePath": "/gallery/wolverine.jpg"
	},
	{
		"id": "ironMan",
		"name": "Iron Man",
		"xp": 3,
		"location": "Gotham",
		"picturePath": "/gallery/iron-man.jpg"
	},
	{
		"id": "venom",
		"name": "Venom",
		"xp": 3,
		"location": "Gotham",
		"picturePath": "/gallery/venom.jpg"
	},
	{
		"id": "thanos",
		"name": "Thanos",
		"xp": 3,
		"location": "Gotham",
		"picturePath": "/gallery/thanos.jpg"
	},
	{
		"id": "greenLantern",
		"name": "Green Latern",
		"xp": 3,
		"location": "Gotham",
		"picturePath": "/gallery/green-lantern.jpg"
	},
	{
		"id": "pikachu",
		"name": "Pikachu",
		"xp": 3,
		"location": "Gotham",
		"picturePath": "/gallery/pikachu.jpg"
	},
	{
		"id": "darkVador",
		"name": "Dark Vador",
		"xp": 3,
		"location": "Gotham",
		"picturePath": "/gallery/dark-vador.jpg"
	},
	{
		"id": "blackWidow",
		"name": "Black Widow",
		"xp": 3,
		"location": "Gotham",
		"picturePath": "/gallery/black-widow.jpg"
	},
	{
		"id": "blackPanther",
		"name": "Black Panther",
		"xp": 3,
		"location": "Gotham",
		"picturePath": "/gallery/black-panther.jpg"
	}
]
